Bellabeat Case Study - A Google Data Analytics Capstone Project Using Health Tracker Data
…
#str(daily_sleep)
#str(hourly_calories)
#str(hourly_intensity)
#str(weight)
#str(heartrate)

#as_tibble(hourly_steps)
#as_tibble(daily_activity)
as_tibble(daily_sleep)

## # A tibble: 413 x 5
##            Id SleepDay          TotalSleepRecor~ TotalMinutesAsl~ TotalTimeInBed
##         <dbl> <chr>                        <int>            <int>          <int>
##  1 1503960366 4/12/2016 12:00:~                1              327            346
##  2 1503960366 4/13/2016 12:00:~                2              384            407
##  3 1503960366 4/15/2016 12:00:~                1              412            442
##  4 1503960366 4/16/2016 12:00:~                2              340            367
##  5 1503960366 4/17/2016 12:00:~                1              700            712
##  6 1503960366 4/19/2016 12:00:~                1              304            320
##  7 1503960366 4/20/2016 12:00:~                1              360            377
##  8 1503960366 4/21/2016 12:00:~                1              325            364
##  9 1503960366 4/23/2016 12:00:~                1              361            384
## 10 1503960366 4/24/2016 12:00:~                1              430            449
## # ... with 403 more rows
…
